{"age":"34","gender":"male","weight":"78","disease":"pneumonia","id":"52525858-59dc-4ad1-90ab-57fb119056fa"}
{"age":"34","gender":"male","weight":"50","disease":"typhoid","id":"cefb34cc-a051-4984-a8f9-5f9c46cc7973"}
{"age":"40","gender":"male","weight":"55","disease":"dysentry","id":"93363143-e6f8-4bb4-8013-8b6d8133316f"}
{"dob":"02-02-2016","gender":"male","weight":"121","disease":"Test","id":"830ca05e-9b3d-4279-aa5b-96661390f2c8"}
{"dob":"01-02-2016","gender":"female","weight":"4","disease":"sfrsfrs","id":"2d1697c6-d6e8-4bc4-b93d-1ff1fc087cf2"}
{"dob":"16-02-2016","gender":"female","weight":"55","disease":"ytghgkj","id":"b4288e42-3e00-4e40-9cdf-d58b83c8bb87"}
{"dob":"29-02-2016","gender":"female","weight":"34","disease":"cghfh","id":"3ca2e775-86f0-4b86-9399-9333e317cd14"}
{"dob":"10-02-2016","gender":"female","weight":"23","disease":"fdgdgdfg","id":"2eb0bca1-ecfd-48ca-af86-23ec549d63e1"}
{"dob":"15-02-2016","gender":"male","weight":"ewrwe","disease":"sfwerw","id":"6c17c0b9-81bc-49e6-9932-3138da55f672"}
{"dob":"22-02-2016","gender":"female","weight":"fd","disease":"dfd","id":"4880c165-4a18-492a-8ee0-ea576f007fcc"}
{"dob":"07-02-2016","gender":"male","weight":"rer","disease":"were","id":"7b0ce714-d221-4f1c-bf26-19643f0094d2"}
{"dob":"02-02-2016","gender":"female","weight":"gg","disease":"gggg","id":"bcbc5bbf-1d04-4246-8f03-283f714f5acb"}
{"dob":"22-02-2016","gender":"female","weight":"12","disease":"12","id":"347de0fd-46ec-4142-b60e-03ef2a5f1ea7"}
{"dob":"02-02-2016","gender":"female","weight":"12","disease":"asasas","id":"c2a24115-2a6c-45a8-9e11-ca709ac32449"}
{"dob":"01-02-2016","gender":"female","weight":"ewrwe","disease":"efewwr","id":"8febab8f-e5fb-4f4f-ae0c-fee77a3c447f"}
{"dob":"02-02-2016","gender":"female","weight":"34","disease":"rertr","id":"d0532d56-2a2d-4f36-b642-9f8a7e555aa4"}
{"dob":"08-02-2016","gender":"male","weight":"22","disease":"dedd","id":"581f2121-3900-488e-b766-f0eb376fac61"}
{"dob":"02-02-2016","gender":"male","weight":"1212","disease":"asasas","id":"6dc512dc-2bcc-4752-ac0b-e48253add8a7"}
{"dob":"02-02-2016","gender":"female","weight":"12","disease":"aasas","id":"6b95b87f-05f0-4764-959b-ddfe794716d6"}
{"id":"b70ecc84-92ca-4c1b-9845-6d2b9ab8959c"}
{"id":"d0239b67-5a6c-44d2-a6fe-7ccf5728e659"}
{"id":"fc1e4fd0-da5b-49ab-b8d7-3c770078c730"}
{"id":"6edad2c8-ce24-4014-8304-fa55165b7c69"}
{"id":"cc613116-6141-4610-9ea8-0627b310d41f"}
{"dob":"01-02-2016","id":"3d5f2b08-1954-4cc2-b0e7-11394a55990c"}
{"id":"2378df71-7bf9-4770-b21f-9b875c8d3583"}
{"id":"08c0dc1f-5bd5-4f6e-9d44-82beaac8d49f"}
{"id":"6ea8eb45-2431-48f8-badb-c1b66bc47a9f"}
{"id":"d8bfd909-3cc6-45d9-834d-1b99755f1042"}
{"id":"878a34b1-fc32-411e-89b4-cab7596616f8"}
{"id":"de69dd1b-902e-429b-9c9b-b00b4bc44bd5"}
{"id":"a5fea46e-1c39-4e10-8b51-ec78ddddd069"}
{"id":"2e847d54-1024-43db-9845-0173f10fe5f7"}
{"id":"8e35ac0b-82c3-4909-a1d6-a8b13b25d8a9"}
{"id":"0471d935-bed9-44a1-bb98-fdcde57ad24e"}
{"id":"975a7b6f-9ca1-4bf1-8d19-aea562c3373a"}
{"id":"27eddec9-1257-4b44-9e12-70770140cd94"}
{"id":"e4a17513-32b3-4fa8-a65a-24b05fb354d2"}
{"id":"2692ee27-f7c6-4fdc-bd4b-0eb17e5e318f"}
{"id":"21d8f315-634d-4041-ae24-6fdb671df3d7"}
{"dob":"28-03-2016","gender":"female","weight":"22","disease":"asa","id":"978c9d4d-10cd-479a-9832-f0b65202d58a"}
{"dob":"22-03-2016","gender":"female","weight":"1111","disease":"AAAA","id":"e03a6550-ba3d-4359-8f36-69f5c22d08ef"}
{"dob":"28-03-2016","gender":"female","weight":"11111","disease":"AAAAA","id":"54ea540b-2f3f-45d8-8f17-a7d4bfdcee61"}
{"dob":"07-03-2016","gender":"male","weight":"1212","disease":"asdAA","id":"9b733874-438f-4e60-a359-6d5c70e4f377"}
{"dob":"07-03-2016","gender":"male","weight":"1212","disease":"asdAA","id":"b68df2bd-1bc1-40f9-86b7-4e9028ec03e8"}
{"dob":"02-03-2016","gender":"female","weight":"121212","disease":"asdasd","id":"f58c6032-aa69-456c-873f-3127d012d42a"}
{"dob":"02-03-2016","gender":"female","weight":"121212","disease":"asdasd","id":"5d224e85-5770-4bed-92f9-811d9ef59cff"}
{"dob":"07-03-2016","gender":"female","weight":"22121","disease":"asdsd","id":"6f99e23a-63a4-44c1-a8f4-16faeca23529"}
{"dob":"07-03-2016","gender":"female","weight":"121212","disease":"ASSSS","id":"7dc4e326-dd55-4a33-bd2d-aaf29e080b0a"}
{"dob":"15-03-2016","gender":"male","weight":"1122","disease":"sas","id":"975c148f-1e99-4770-9eea-f2c848272c52"}
{"dob":"08-03-2016","gender":"female","weight":"12","disease":"TEst","id":"9f3dd853-5aa4-40d0-bc16-d04a9be22584"}
